{
  "api": "0",
  "authors": [
    "Patrick Spek <p.spek@tyil.work>"
  ],
  "depends": [
    
  ],
  "description": "Objects to easily render templates of metrics for usage with Prometheus",
  "license": "AGPL-3.0",
  "meta-version": 0,
  "name": "Template::Prometheus",
  "perl": "6.d",
  "provides": {
    "Template::Prometheus": "lib/Template/Prometheus.pm6",
    "Template::Prometheus::Metric": "lib/Template/Prometheus/Metric.pm6",
    "Template::Prometheus::Metrics::Gauge": "lib/Template/Prometheus/Metrics/Gauge.pm6"
  },
  "resources": [
    
  ],
  "source-url": "",
  "tags": [
    
  ],
  "version": "0.1.0"
}